==========================Scores========================================
 Accuracy:  0,2919
 Precision: 0,2351
 Recall:    0,1239
 F1 Score:  0,1622
========================================================================
+1 layer:
==========================Scores========================================
 Accuracy:  0,2835
 Precision: 0,3269
 Recall:    0,1413
 F1 Score:  0,1974
========================================================================
+2 layers:
==========================Scores========================================
 Accuracy:  0,2871
 Precision: 0,3167
 Recall:    0,1519
 F1 Score:  0,2053
========================================================================
learning rate 0.3
==========================Scores========================================
 Accuracy:  0,2871
 Precision: 0,2519
 Recall:    0,1399
 F1 Score:  0,1799
========================================================================
weight initialisation -> NORMALISED
==========================Scores========================================
 Accuracy:  0,25
 Precision: 0,2632
 Recall:    0,0923
 F1 Score:  0,1366
========================================================================
tanh-> relu
==========================Scores========================================
 Accuracy:  0,3134
 Precision: 0,2818
 Recall:    0,1371
 F1 Score:  0,1845
========================================================================
tanh -> hardtanh
==========================Scores========================================
 Accuracy:  0,2943
 Precision: 0,2358
 Recall:    0,1317
 F1 Score:  0,169
========================================================================
+3 layers
==========================Scores========================================
 Accuracy:  0,3086
 Precision: 0,3177
 Recall:    0,1463
 F1 Score:  0,2003
========================================================================
